{
  "key": "render-Markdown",
  "name": "Render Markdown",
  "description": "Display Markdown content in your Confluence Pages.",
  "baseUrl": "https://s3.amazonaws.com/render-markdown/",
  "vendor": {
    "name": "StreamlineSoft",
    "url": "http://streamline.atlassian.net"
  },
  "authentication": {
    "type": "none"
  },
  "version": "1.0",
  "modules": {
    "dynamicContentMacros": [
      {
        "url": "/render-markdown.html?pageId={page.id}&pageVersion={page.version}&macroHash={macro.hash}&macroId={macro.id}&outputType={output.type}&highlightStyle={highlightStyle}&highlight={highlight}",
        "description": {
          "value": "Renders Markdown text"
        },
        "icon": {
          "width": 66,
          "height": 40,
          "url": "markdown-mark.png"
        },
        "documentation": {
          "url": "https://streamline.atlassian.net/wiki/display/RM/Render+Markdown"
        },
        "categories": [
          "formatting"
        ],
        "outputType": "block",
        "bodyType": "plain-text",
        "key": "markdown",
        "name": {
          "value": "Markdown"
        },
        "parameters": [
          {
            "identifier": "highlightStyle",
            "name": {
              "value": "Highlighting Style"
            },
            "type": "enum",
            "values": [
              "arta",
              "ascetic",
              "atelier-dune.dark",
              "atelier-dune.light",
              "atelier-forest.dark",
              "atelier-forest.light",
              "atelier-heath.dark",
              "atelier-heath.light",
              "atelier-lakeside.dark",
              "atelier-lakeside.light",
              "atelier-seaside.dark",
              "atelier-seaside.light",
              "brown_paper",
              "codepen-embed",
              "color-brewer",
              "dark",
              "default",
              "docco",
              "far",
              "foundation",
              "github",
              "googlecode",
              "hybrid",
              "idea",
              "ir_black",
              "kimbie.dark",
              "kimbie.light",
              "magula",
              "mono-blue",
              "monokai",
              "monokai_sublime",
              "obsidian",
              "paraiso.dark",
              "paraiso.light",
              "pojoaque",
              "railscasts",
              "rainbow",
              "school_book",
              "solarized_dark",
              "solarized_light",
              "sunburst",
              "tomorrow-night-blue",
              "tomorrow-night-bright",
              "tomorrow-night-eighties",
              "tomorrow-night",
              "tomorrow",
              "vs",
              "xcode",
              "zenburn"
            ],
            "defaultValue": "default"
          },
          {
            "identifier": "highlight",
            "name": {
              "value": "Syntax Highlighting On"
            },
            "type": "boolean",
            "defaultValue": "true"
          }
        ]
      }
    ]
  },
  "scopes": ["read"]
}